[
{"url": "/looks-de-la-tv", "description": "Mal"},
{"url": "/e/881/rebajas-vaqueros", "description": "Mal"},
{"url": "/e/219/dim", "description": "Mal"},
{"url": "/e/1088/productos-depilacion", "description": "Mal"},
{"url": "/e/1123/cuidado-del-cuerpo", "description": "Mal"}
]