[
{"url": "/e/49/mulher-navy", "description": "Mal"},
{"url": "/e/838/trend-capsule", "description": "Mal"},
{"url": "/e/16/toda-a-colecao", "description": "Mal"},
{"url": "/e/919/trend-capsule-new", "description": "Mal"},
{"url": "/e/51/os-nossos-superprecos", "description": "Mal"},
{"url": "/e/33/moda-praia", "description": "Mal"},
{"url": "/e/62/lingerie-sexy", "description": "Mal"},
{"url": "/e/24/casacos", "description": "Mal"},
{"url": "/e/58/bodies-mulher", "description": "Mal"},
{"url": "/e/1012/cuecas-subidas-para-mulher", "description": "Mal"},
{"url": "/e/1192/soutiens-sem-aros", "description": "Mal"},
{"url": "/e/1285/leggings-tamanhos-grandes?space=chicsize", "description": "Mal"},
{"url": "/e/193/casacos-tamanhos-grandes?space=chicsize", "description": "Mal"},
{"url": "/e/568/agasalhos-tamanhos-grandes?space=chicsize", "description": "Mal"},
{"url": "/e/1278/cuidado-do-cabelo-crianca", "description": "Mal"},
{"url": "/e/1130/higiene-infantil", "description": "Mal"},
{"url": "/e/1088/produtos-de-depilacao", "description": "Mal"},
{"url": "/e/1120/presentes-cosmetica", "description": "Mal"},
{"url": "/e/1087/desodorizantes", "description": "Mal"},
{"url": "/e/1095/accesorios-de-maquilhagem", "description": "Mal"},
{"url": "/e/1092/vernizes-e-tratamentos-para-unhas", "description": "Mal"},
{"url": "/e/1080/cremes-hidratantes", "description": "Mal"},
{"url": "/e/1084/serum-para-rosto", "description": "Mal"},
{"url": "/e/1072/champo", "description": "Mal"},
{"url": "/e/1083/esfoliantes-para-o-rosto", "description": "Mal"},
{"url": "/e/1082/cremes-anti-idade", "description": "Mal"},
{"url": "/e/917/promocoes-trend-capsule", "description": "Mal"},
{"url": "/e/464/promocoes-em-acessorios", "description": "Mal"},
{"url": "/e/292/saldos-crianca", "description": "Mal"},
{"url": "/e/417/promocoes-em-roupa-desportiva", "description": "Mal"},
{"url": "/e/100/promocoes-calcas", "description": "Mal"},
{"url": "/e/1246/roupa-e-acessorios-shimmer-and-shine", "description": "Mal"},
{"url": "/e/1225/roupa-e-acessorios-patrulha-pata", "description": "Mal"},
{"url": "/e/162/biquinis-e-fatos-de-banho-menina", "description": "Mal"},
{"url": "/e/972/nova-colecao-crianca", "description": "Mal"},
{"url": "/e/1133/cosmetica-infantil", "description": "Mal"},
{"url": "/e/161/calcado-e-acessorios-rapariga", "description": "Mal"},
{"url": "/e/151/pijamas-e-roupa-interior-rapaz", "description": "Mal"},
{"url": "/e/121/organizadores", "description": "Mal"},
{"url": "/e/127/mantas-e-capas-de-sofa", "description": "Mal"},
{"url": "/e/124/capas-sofa", "description": "Mal"},
{"url": "/e/129/moveis-e-decoracao", "description": "Mal"},
{"url": "/e/118/edredons-e-almofadas", "description": "Mal"},
{"url": "/e/133/roupa-homem", "description": "Mal"},
{"url": "/e/139/complementos-hombre", "description": "Mal"},
{"url": "/e/140/roupa-interior-homem", "description": "Mal"},
{"url": "/e/580/calcado-homem", "description": "Mal"}
]