[
{"url": "https://www.venca.es/favicon.png"},
{"url": "https://www.venca.es/Content/css/venca.min.css?1.0.7052.33636"},
{"url": "https://www.venca.es/g"},
{"url": "https://m.venca.es/g"},
{"url": "#"},
{"url": "/"},
{"url": "/e/16/nueva-coleccion-moda-mujer"},
{"url": "/e/38/moda-mujer"},
{"url": "/e/295/lenceria"},
{"url": "/e/32/zapatos"},
{"url": "/chicsize"},
{"url": "/e/1038/moda-ropa-hombre"},
{"url": "/e/910/ropa-online-para-ninos"},
{"url": "/e/298/hogar"},
{"url": "/e/856/las-mejores-rebajas"},
{"url": "/e/569/productos-de-belleza"},
{"url": "/e/907/ropa-y-accesorios-de-marca"},
{"url": "#collapse-navigation-4"},
{"url": "#collapse-navigation-5"},
{"url": "#collapse-navigation-6"},
{"url": "#collapse-navigation-70"},
{"url": "#collapse-navigation-8"},
{"url": "#collapse-navigation-9"},
{"url": "#collapse-navigation-15"},
{"url": "#collapse-navigation-10"},
{"url": "#collapse-navigation-11"},
{"url": "#collapse-navigation-81"},
{"url": "#collapse-navigation-14"},
{"url": "#collapse14"},
{"url": "/cart?showBuyFromCatalog=True"},
{"url": "#collapse15"},
{"url": "/Help"},
{"url": "/cart/applyPromotion?advantageCode=cz130&returnUrl=https://www.venca.es/e/38/moda-mujer"},
{"url": "/g/CM130"},
{"url": "/g/CY130"},
{"url": "/g/CX130"},
{"url": "/g/AP130"},
{"url": "/g/BK130"},
{"url": "/g/BN130"},
{"url": "/g/BM130"},
{"url": "/g/BP130"},
{"url": "/g/BS130"},
{"url": "/g/BV130"},
{"url": "/g/AW130"},
{"url": "/g/AG130"},
{"url": "/g/GX130"},
{"url": "/g/AJ130"},
{"url": "/g/GR130"},
{"url": "/g/FH130"},
{"url": "/g/AC130"},
{"url": "/g/AD130"},
{"url": "https://www.venca.es/blog/"},
{"url": "/pago-aplazado"},
{"url": "#"}
]