[
{"url": "https://www.venca.es"},
{"url": "https://www.venca.pt"},
{"url": "https://www.venca.com/en"},
{"url": "https://www.venca.es/favicon.png"},
{"url": "https://www.venca.es/Content/css/venca.min.css?1.0.7052.33636"},
{"url": "https://www.venca.es"},
{"url": "https://m.venca.es"},
{"url": "#"},
{"url": "/"},
{"url": "/e/16/nueva-coleccion-moda-mujer"},
{"url": "/e/38/moda-mujer"},
{"url": "/e/295/lenceria"},
{"url": "/e/32/zapatos"},
{"url": "/chicsize"},
{"url": "/e/1038/moda-ropa-hombre"},
{"url": "/e/910/ropa-online-para-ninos"},
{"url": "/e/298/hogar"},
{"url": "/e/856/las-mejores-rebajas"},
{"url": "/e/569/productos-de-belleza"},
{"url": "/e/907/ropa-y-accesorios-de-marca"},
{"url": "#collapse-navigation-4"},
{"url": "#collapse-navigation-5"},
{"url": "#collapse-navigation-6"},
{"url": "#collapse-navigation-70"},
{"url": "#collapse-navigation-8"},
{"url": "#collapse-navigation-9"},
{"url": "#collapse-navigation-15"},
{"url": "#collapse-navigation-10"},
{"url": "#collapse-navigation-11"},
{"url": "#collapse-navigation-81"},
{"url": "#collapse-navigation-14"},
{"url": "#collapse14"},
{"url": "/cart?showBuyFromCatalog=True"},
{"url": "#collapse15"},
{"url": "/Help"},
{"url": "/cart/applyPromotion?advantageCode=cz130&returnUrl=https://www.venca.es/e/38/moda-mujer"},
{"url": "/cart/applyPromotion?advantageCode=cz130&returnUrl=https://www.venca.es/e/38/moda-mujer"},
{"url": "/e/864/ideas-regalo-mujer"},
{"url": "/e/885/novedades-hogar"},
{"url": "/e/38/moda-mujer"},
{"url": "/e/16/nueva-coleccion-moda-mujer"},
{"url": "/e/919/trend-capsule-new"},
{"url": "/g/CX130"},
{"url": "/p/022726/cazadora-perfecto-en-suave-simil-piel"},
{"url": "/p/024613/vestido-vaquero-evase-tallas-grandes-bellisima"},
{"url": "/p/024389/pantalon-recto-palazzo-fluido-color-liso"},
{"url": "/p/022717/vestido-largo-de-tirantes-trenzados-con-paneles"},
{"url": "/p/027231/americana-lisa-con-boton-de-fantasia"},
{"url": "/p/022720/mono-corto-cruzado-estampado-tropical"},
{"url": "https://www.venca.es/blog/"},
{"url": "/pago-aplazado"},
{"url": "https://www.venca.com/en"},
{"url": "../e/332/vestidos-fiesta"},
{"url": "../e/38/moda-mujer"},
{"url": "../e/295/lenceria"},
{"url": "../codigos-descuento"},
{"url": "../mapa-del-sitio"},
{"url": "#"}
]